[
  {
    "page": 1,
    "pages": 2,
    "per_page": 50,
    "total": 65,
    "sourceid": "2",
    "lastupdated": "2025-12-19"
  },
  [
    {
      "indicator": {
        "id": "NY.GDP.MKTP.CD",
        "value": "GDP (current US$)"
      },
      "country": {
        "id": "EG",
        "value": "Egypt, Arab Rep."
      },
      "countryiso3code": "EGY",
      "date": "2024",
      "value": 389059911003.566,
      "unit": "",
      "obs_status": "",
      "decimal": 0
    },
    {
      "indicator": {
        "id": "NY.GDP.MKTP.CD",
        "value": "GDP (current US$)"
      },
      "country": {
        "id": "EG",
        "value": "Egypt, Arab Rep."
      },
      "countryiso3code": "EGY",
      "date": "2023",
      "value": 395926075163.006,
      "unit": "",
      "obs_status": "",
      "decimal": 0
    },
    {
      "indicator": {
        "id": "NY.GDP.MKTP.CD",
        "value": "GDP (current US$)"
      },
      "country": {
        "id": "EG",
        "value": "Egypt, Arab Rep."
      },
      "countryiso3code": "EGY",
      "date": "2022",
      "value": 476747720364.742,
      "unit": "",
      "obs_status": "",
      "decimal": 0
    },
    {
      "indicator": {
        "id": "NY.GDP.MKTP.CD",
        "value": "GDP (current US$)"
      },
      "country": {
        "id": "EG",
        "value": "Egypt, Arab Rep."
      },
      "countryiso3code": "EGY",
      "date": "2021",
      "value": 424671765455.704,
      "unit": "",
      "obs_status": "",
      "decimal": 0
    },
    {
      "indicator": {
        "id": "NY.GDP.MKTP.CD",
        "value": "GDP (current US$)"
      },
      "country": {
        "id": "EG",
        "value": "Egypt, Arab Rep."
      },
      "countryiso3code": "EGY",
      "date": "2020",
      "value": 383817841547.099,
      "unit": "",
      "obs_status": "",
      "decimal": 0
    },
    {
      "indicator": {
        "id": "NY.GDP.MKTP.CD",
        "value": "GDP (current US$)"
      },
      "country": {
        "id": "EG",
        "value": "Egypt, Arab Rep."
      },
      "countryiso3code": "EGY",
      "date": "2019",
      "value": 318678815489.749,
      "unit": "",
      "obs_status": "",
      "decimal": 0
    },
    {
      "indicator": {
        "id": "NY.GDP.MKTP.CD",
        "value": "GDP (current US$)"
      },
      "country": {
        "id": "EG",
        "value": "Egypt, Arab Rep."
      },
      "countryiso3code": "EGY",
      "date": "2018",
      "value": 262588632526.73,
      "unit": "",
      "obs_status": "",
      "decimal": 0
    },
    {
      "indicator": {
        "id": "NY.GDP.MKTP.CD",
        "value": "GDP (current US$)"
      },
      "country": {
        "id": "EG",
        "value": "Egypt, Arab Rep."
      },
      "countryiso3code": "EGY",
      "date": "2017",
      "value": 248362771739.13,
      "unit": "",
      "obs_status": "",
      "decimal": 0
    },
    {
      "indicator": {
        "id": "NY.GDP.MKTP.CD",
        "value": "GDP (current US$)"
      },
      "country": {
        "id": "EG",
        "value": "Egypt, Arab Rep."
      },
      "countryiso3code": "EGY",
      "date": "2016",
      "value": 332441717791.411,
      "unit": "",
      "obs_status": "",
      "decimal": 0
    },
    {
      "indicator": {
        "id": "NY.GDP.MKTP.CD",
        "value": "GDP (current US$)"
      },
      "country": {
        "id": "EG",
        "value": "Egypt, Arab Rep."
      },
      "countryiso3code": "EGY",
      "date": "2015",
      "value": 329366576819.407,
      "unit": "",
      "obs_status": "",
      "decimal": 0
    },
    {
      "indicator": {
        "id": "NY.GDP.MKTP.CD",
        "value": "GDP (current US$)"
      },
      "country": {
        "id": "EG",
        "value": "Egypt, Arab Rep."
      },
      "countryiso3code": "EGY",
      "date": "2014",
      "value": 305595408895.265,
      "unit": "",
      "obs_status": "",
      "decimal": 0
    },
    {
      "indicator": {
        "id": "NY.GDP.MKTP.CD",
        "value": "GDP (current US$)"
      },
      "country": {
        "id": "EG",
        "value": "Egypt, Arab Rep."
      },
      "countryiso3code": "EGY",
      "date": "2013",
      "value": 288434108527.132,
      "unit": "",
      "obs_status": "",
      "decimal": 0
    },
    {
      "indicator": {
        "id": "NY.GDP.MKTP.CD",
        "value": "GDP (current US$)"
      },
      "country": {
        "id": "EG",
        "value": "Egypt, Arab Rep."
      },
      "countryiso3code": "EGY",
      "date": "2012",
      "value": 279116666666.667,
      "unit": "",
      "obs_status": "",
      "decimal": 0
    },
    {
      "indicator": {
        "id": "NY.GDP.MKTP.CD",
        "value": "GDP (current US$)"
      },
      "country": {
        "id": "EG",
        "value": "Egypt, Arab Rep."
      },
      "countryiso3code": "EGY",
      "date": "2011",
      "value": 235989672977.625,
      "unit": "",
      "obs_status": "",
      "decimal": 0
    },
    {
      "indicator": {
        "id": "NY.GDP.MKTP.CD",
        "value": "GDP (current US$)"
      },
      "country": {
        "id": "EG",
        "value": "Egypt, Arab Rep."
      },
      "countryiso3code": "EGY",
      "date": "2010",
      "value": 218983666061.706,
      "unit": "",
      "obs_status": "",
      "decimal": 0
    },
    {
      "indicator": {
        "id": "NY.GDP.MKTP.CD",
        "value": "GDP (current US$)"
      },
      "country": {
        "id": "EG",
        "value": "Egypt, Arab Rep."
      },
      "countryiso3code": "EGY",
      "date": "2009",
      "value": 189147005444.646,
      "unit": "",
      "obs_status": "",
      "decimal": 0
    },
    {
      "indicator": {
        "id": "NY.GDP.MKTP.CD",
        "value": "GDP (current US$)"
      },
      "country": {
        "id": "EG",
        "value": "Egypt, Arab Rep."
      },
      "countryiso3code": "EGY",
      "date": "2008",
      "value": 162818181818.182,
      "unit": "",
      "obs_status": "",
      "decimal": 0
    },
    {
      "indicator": {
        "id": "NY.GDP.MKTP.CD",
        "value": "GDP (current US$)"
      },
      "country": {
        "id": "EG",
        "value": "Egypt, Arab Rep."
      },
      "countryiso3code": "EGY",
      "date": "2007",
      "value": 130437828371.278,
      "unit": "",
      "obs_status": "",
      "decimal": 0
    },
    {
      "indicator": {
        "id": "NY.GDP.MKTP.CD",
        "value": "GDP (current US$)"
      },
      "country": {
        "id": "EG",
        "value": "Egypt, Arab Rep."
      },
      "countryiso3code": "EGY",
      "date": "2006",
      "value": 107426086956.522,
      "unit": "",
      "obs_status": "",
      "decimal": 0
    },
    {
      "indicator": {
        "id": "NY.GDP.MKTP.CD",
        "value": "GDP (current US$)"
      },
      "country": {
        "id": "EG",
        "value": "Egypt, Arab Rep."
      },
      "countryiso3code": "EGY",
      "date": "2005",
      "value": 89660339660.3397,
      "unit": "",
      "obs_status": "",
      "decimal": 0
    },
    {
      "indicator": {
        "id": "NY.GDP.MKTP.CD",
        "value": "GDP (current US$)"
      },
      "country": {
        "id": "EG",
        "value": "Egypt, Arab Rep."
      },
      "countryiso3code": "EGY",
      "date": "2004",
      "value": 78782467532.4675,
      "unit": "",
      "obs_status": "",
      "decimal": 0
    },
    {
      "indicator": {
        "id": "NY.GDP.MKTP.CD",
        "value": "GDP (current US$)"
      },
      "country": {
        "id": "EG",
        "value": "Egypt, Arab Rep."
      },
      "countryiso3code": "EGY",
      "date": "2003",
      "value": 80288461538.4615,
      "unit": "",
      "obs_status": "",
      "decimal": 0
    },
    {
      "indicator": {
        "id": "NY.GDP.MKTP.CD",
        "value": "GDP (current US$)"
      },
      "country": {
        "id": "EG",
        "value": "Egypt, Arab Rep."
      },
      "countryiso3code": "EGY",
      "date": "2002",
      "value": 85146067415.7303,
      "unit": "",
      "obs_status": "",
      "decimal": 0
    },
    {
      "indicator": {
        "id": "NY.GDP.MKTP.CD",
        "value": "GDP (current US$)"
      },
      "country": {
        "id": "EG",
        "value": "Egypt, Arab Rep."
      },
      "countryiso3code": "EGY",
      "date": "2001",
      "value": 96684636118.5984,
      "unit": "",
      "obs_status": "",
      "decimal": 0
    },
    {
      "indicator": {
        "id": "NY.GDP.MKTP.CD",
        "value": "GDP (current US$)"
      },
      "country": {
        "id": "EG",
        "value": "Egypt, Arab Rep."
      },
      "countryiso3code": "EGY",
      "date": "2000",
      "value": 99838543960.0763,
      "unit": "",
      "obs_status": "",
      "decimal": 0
    },
    {
      "indicator": {
        "id": "NY.GDP.MKTP.CD",
        "value": "GDP (current US$)"
      },
      "country": {
        "id": "EG",
        "value": "Egypt, Arab Rep."
      },
      "countryiso3code": "EGY",
      "date": "1999",
      "value": 90710704806.8416,
      "unit": "",
      "obs_status": "",
      "decimal": 0
    },
    {
      "indicator": {
        "id": "NY.GDP.MKTP.CD",
        "value": "GDP (current US$)"
      },
      "country": {
        "id": "EG",
        "value": "Egypt, Arab Rep."
      },
      "countryiso3code": "EGY",
      "date": "1998",
      "value": 84828807556.0803,
      "unit": "",
      "obs_status": "",
      "decimal": 0
    },
    {
      "indicator": {
        "id": "NY.GDP.MKTP.CD",
        "value": "GDP (current US$)"
      },
      "country": {
        "id": "EG",
        "value": "Egypt, Arab Rep."
      },
      "countryiso3code": "EGY",
      "date": "1997",
      "value": 78436578171.0914,
      "unit": "",
      "obs_status": "",
      "decimal": 0
    },
    {
      "indicator": {
        "id": "NY.GDP.MKTP.CD",
        "value": "GDP (current US$)"
      },
      "country": {
        "id": "EG",
        "value": "Egypt, Arab Rep."
      },
      "countryiso3code": "EGY",
      "date": "1996",
      "value": 67629716981.1321,
      "unit": "",
      "obs_status": "",
      "decimal": 0
    },
    {
      "indicator": {
        "id": "NY.GDP.MKTP.CD",
        "value": "GDP (current US$)"
      },
      "country": {
        "id": "EG",
        "value": "Egypt, Arab Rep."
      },
      "countryiso3code": "EGY",
      "date": "1995",
      "value": 60159245060.4541,
      "unit": "",
      "obs_status": "",
      "decimal": 0
    },
    {
      "indicator": {
        "id": "NY.GDP.MKTP.CD",
        "value": "GDP (current US$)"
      },
      "country": {
        "id": "EG",
        "value": "Egypt, Arab Rep."
      },
      "countryiso3code": "EGY",
      "date": "1994",
      "value": 51897983392.6453,
      "unit": "",
      "obs_status": "",
      "decimal": 0
    },
    {
      "indicator": {
        "id": "NY.GDP.MKTP.CD",
        "value": "GDP (current US$)"
      },
      "country": {
        "id": "EG",
        "value": "Egypt, Arab Rep."
      },
      "countryiso3code": "EGY",
      "date": "1993",
      "value": 46578631452.581,
      "unit": "",
      "obs_status": "",
      "decimal": 0
    },
    {
      "indicator": {
        "id": "NY.GDP.MKTP.CD",
        "value": "GDP (current US$)"
      },
      "country": {
        "id": "EG",
        "value": "Egypt, Arab Rep."
      },
      "countryiso3code": "EGY",
      "date": "1992",
      "value": 41855986519.4235,
      "unit": "",
      "obs_status": "",
      "decimal": 0
    },
    {
      "indicator": {
        "id": "NY.GDP.MKTP.CD",
        "value": "GDP (current US$)"
      },
      "country": {
        "id": "EG",
        "value": "Egypt, Arab Rep."
      },
      "countryiso3code": "EGY",
      "date": "1991",
      "value": 37387836490.5284,
      "unit": "",
      "obs_status": "",
      "decimal": 0
    },
    {
      "indicator": {
        "id": "NY.GDP.MKTP.CD",
        "value": "GDP (current US$)"
      },
      "country": {
        "id": "EG",
        "value": "Egypt, Arab Rep."
      },
      "countryiso3code": "EGY",
      "date": "1990",
      "value": 42978914311.3504,
      "unit": "",
      "obs_status": "",
      "decimal": 0
    },
    {
      "indicator": {
        "id": "NY.GDP.MKTP.CD",
        "value": "GDP (current US$)"
      },
      "country": {
        "id": "EG",
        "value": "Egypt, Arab Rep."
      },
      "countryiso3code": "EGY",
      "date": "1989",
      "value": 39756299049.9793,
      "unit": "",
      "obs_status": "",
      "decimal": 0
    },
    {
      "indicator": {
        "id": "NY.GDP.MKTP.CD",
        "value": "GDP (current US$)"
      },
      "country": {
        "id": "EG",
        "value": "Egypt, Arab Rep."
      },
      "countryiso3code": "EGY",
      "date": "1988",
      "value": 34980124929.0176,
      "unit": "",
      "obs_status": "",
      "decimal": 0
    },
    {
      "indicator": {
        "id": "NY.GDP.MKTP.CD",
        "value": "GDP (current US$)"
      },
      "country": {
        "id": "EG",
        "value": "Egypt, Arab Rep."
      },
      "countryiso3code": "EGY",
      "date": "1987",
      "value": 40455616653.5742,
      "unit": "",
      "obs_status": "",
      "decimal": 0
    },
    {
      "indicator": {
        "id": "NY.GDP.MKTP.CD",
        "value": "GDP (current US$)"
      },
      "country": {
        "id": "EG",
        "value": "Egypt, Arab Rep."
      },
      "countryiso3code": "EGY",
      "date": "1986",
      "value": 41253507951.3564,
      "unit": "",
      "obs_status": "",
      "decimal": 0
    },
    {
      "indicator": {
        "id": "NY.GDP.MKTP.CD",
        "value": "GDP (current US$)"
      },
      "country": {
        "id": "EG",
        "value": "Egypt, Arab Rep."
      },
      "countryiso3code": "EGY",
      "date": "1985",
      "value": 39053502251.0732,
      "unit": "",
      "obs_status": "",
      "decimal": 0
    },
    {
      "indicator": {
        "id": "NY.GDP.MKTP.CD",
        "value": "GDP (current US$)"
      },
      "country": {
        "id": "EG",
        "value": "Egypt, Arab Rep."
      },
      "countryiso3code": "EGY",
      "date": "1984",
      "value": 33971188991.6147,
      "unit": "",
      "obs_status": "",
      "decimal": 0
    },
    {
      "indicator": {
        "id": "NY.GDP.MKTP.CD",
        "value": "GDP (current US$)"
      },
      "country": {
        "id": "EG",
        "value": "Egypt, Arab Rep."
      },
      "countryiso3code": "EGY",
      "date": "1983",
      "value": 30966239813.7369,
      "unit": "",
      "obs_status": "",
      "decimal": 0
    },
    {
      "indicator": {
        "id": "NY.GDP.MKTP.CD",
        "value": "GDP (current US$)"
      },
      "country": {
        "id": "EG",
        "value": "Egypt, Arab Rep."
      },
      "countryiso3code": "EGY",
      "date": "1982",
      "value": 27655172413.7931,
      "unit": "",
      "obs_status": "",
      "decimal": 0
    },
    {
      "indicator": {
        "id": "NY.GDP.MKTP.CD",
        "value": "GDP (current US$)"
      },
      "country": {
        "id": "EG",
        "value": "Egypt, Arab Rep."
      },
      "countryiso3code": "EGY",
      "date": "1981",
      "value": 22136081081.0811,
      "unit": "",
      "obs_status": "",
      "decimal": 0
    },
    {
      "indicator": {
        "id": "NY.GDP.MKTP.CD",
        "value": "GDP (current US$)"
      },
      "country": {
        "id": "EG",
        "value": "Egypt, Arab Rep."
      },
      "countryiso3code": "EGY",
      "date": "1980",
      "value": 21669908176.3889,
      "unit": "",
      "obs_status": "",
      "decimal": 0
    },
    {
      "indicator": {
        "id": "NY.GDP.MKTP.CD",
        "value": "GDP (current US$)"
      },
      "country": {
        "id": "EG",
        "value": "Egypt, Arab Rep."
      },
      "countryiso3code": "EGY",
      "date": "1979",
      "value": 18020571428.5714,
      "unit": "",
      "obs_status": "",
      "decimal": 0
    },
    {
      "indicator": {
        "id": "NY.GDP.MKTP.CD",
        "value": "GDP (current US$)"
      },
      "country": {
        "id": "EG",
        "value": "Egypt, Arab Rep."
      },
      "countryiso3code": "EGY",
      "date": "1978",
      "value": 14811704063.0685,
      "unit": "",
      "obs_status": "",
      "decimal": 0
    },
    {
      "indicator": {
        "id": "NY.GDP.MKTP.CD",
        "value": "GDP (current US$)"
      },
      "country": {
        "id": "EG",
        "value": "Egypt, Arab Rep."
      },
      "countryiso3code": "EGY",
      "date": "1977",
      "value": 14400806875.9867,
      "unit": "",
      "obs_status": "",
      "decimal": 0
    },
    {
      "indicator": {
        "id": "NY.GDP.MKTP.CD",
        "value": "GDP (current US$)"
      },
      "country": {
        "id": "EG",
        "value": "Egypt, Arab Rep."
      },
      "countryiso3code": "EGY",
      "date": "1976",
      "value": 13315988083.4161,
      "unit": "",
      "obs_status": "",
      "decimal": 0
    },
    {
      "indicator": {
        "id": "NY.GDP.MKTP.CD",
        "value": "GDP (current US$)"
      },
      "country": {
        "id": "EG",
        "value": "Egypt, Arab Rep."
      },
      "countryiso3code": "EGY",
      "date": "1975",
      "value": 11632178868.9171,
      "unit": "",
      "obs_status": "",
      "decimal": 0
    }
  ]
]
